<svg xmlns="http://www.w3.org/2000/svg" width="19.885" height="24" viewBox="0 0 19.885 24">
    <defs>
        <style>
            .cls-1{fill:#282c40;opacity:.5}
        </style>
    </defs>
    <path id="_21" d="M2.7 24a2.7 2.7 0 1 1 2.7-2.7A2.7 2.7 0 0 1 2.7 24zm0-3.887A1.188 1.188 0 1 0 3.887 21.3 1.19 1.19 0 0 0 2.7 20.113zm7.5-.74a9.685 9.685 0 1 1 6.858-2.83 9.641 9.641 0 0 1-6.858 2.83zm0-17.865a8.177 8.177 0 0 0-5.789 13.963A8.184 8.184 0 1 0 10.2 1.508z" class="cls-1" data-name="21"/>
</svg>
