<svg xmlns="http://www.w3.org/2000/svg" width="21.364" height="24" viewBox="0 0 21.364 24">
    <defs>
        <style>
            .cls-1{fill:#282c40;opacity:.5}
        </style>
    </defs>
    <path id="_4F" d="M20.43 24H.934A.935.935 0 0 1 0 23.066V17.8a5.966 5.966 0 0 1 1.706-4.2A4.408 4.408 0 0 1 4.8 12.3h.076l1.844-.006h.029l1.837-.007 1.642-.008h.1c2.3-.011 4.685-.023 6.072-.023a5 5 0 0 1 4.965 5.214v5.6a.935.935 0 0 1-.935.93zM4.777 14.161a2.468 2.468 0 0 0-1.764.773A4.07 4.07 0 0 0 1.867 17.8v4.331H19.5v-4.665a3.1 3.1 0 0 0-3.1-3.348c-1.421 0-3.934.012-6.386.025l-1.421.007c-.629 0-1.218.006-1.738.009h-.09c-.479 0-1.02.007-1.408.007H4.85zm5.9-3.035a5.563 5.563 0 1 1 5.562-5.563 5.568 5.568 0 0 1-5.557 5.563zm0-9.259a3.7 3.7 0 1 0 3.695 3.7 3.7 3.7 0 0 0-3.69-3.7z" class="cls-1" data-name="4F"/>
</svg>
