<svg xmlns="http://www.w3.org/2000/svg" width="32.778" height="24" viewBox="0 0 32.778 24">
    <defs>
        <style>
            .cls-1{fill:#282c40;opacity:.5}
        </style>
    </defs>
    <path id="_4H" d="M3.84 24a.766.766 0 0 1-.337-.079.787.787 0 0 1-.457-.715v-4.043H1.854A1.8 1.8 0 0 1 0 17.425V6.088a1.8 1.8 0 0 1 1.854-1.744h13.527V1.589A1.628 1.628 0 0 1 17.042 0h14.075a1.628 1.628 0 0 1 1.661 1.589v9.553a1.628 1.628 0 0 1-1.661 1.589h-.829v3.28a.791.791 0 0 1-.462.72.821.821 0 0 1-.332.074.788.788 0 0 1-.517-.191l-4.54-3.883h-3.51v4.694a1.8 1.8 0 0 1-1.854 1.738H9.956l-5.608 4.652A.791.791 0 0 1 3.84 24zM1.854 5.934c-.162 0-.265.1-.265.154v11.337c0 .052.1.149.265.149h1.987a.8.8 0 0 1 .794.794v3.141l4.526-3.75a.085.085 0 0 1 .027-.019l.072-.048a.414.414 0 0 1 .064-.037.359.359 0 0 1 .072-.026.422.422 0 0 1 .075-.027l.072-.016h9.523c.164 0 .265-.1.265-.149V6.088c0-.053-.1-.154-.265-.154zm15.188-4.345a.1.1 0 0 0-.078.027l.005 2.728h2.1a1.8 1.8 0 0 1 1.854 1.743v5.054H24.77a.39.39 0 0 1 .077.01.2.2 0 0 1 .079.016.322.322 0 0 1 .07.021l.077.031.025.013.037.019a.449.449 0 0 1 .043.03l.031.023a.116.116 0 0 0 .032.021l3.452 2.95v-2.339a.8.8 0 0 1 .794-.794h1.624a.107.107 0 0 0 .078-.027l-.006-9.521s0 .006-.006.006h-.016a.177.177 0 0 0-.05-.008z" class="cls-1" data-name="4H"/>
</svg>
