<svg xmlns="http://www.w3.org/2000/svg" width="20" height="10.711" viewBox="0 0 20 10.711">
    <defs>
        <style>
            .cls-1{fill:#007f3d}
        </style>
    </defs>
    <path id="_6A" d="M.854 20a.854.854 0 0 1-.609-1.454L8.659 10 .246 1.453A.854.854 0 0 1 1.462.254l9 9.146a.854.854 0 0 1 0 1.2l-9 9.146A.851.851 0 0 1 .854 20" class="cls-1" data-name="6A" transform="rotate(90 10 10)"/>
</svg>
