<svg xmlns="http://www.w3.org/2000/svg" xmlns:xlink="http://www.w3.org/1999/xlink" width="200" height="156.492" viewBox="0 0 200 156.492">
  <defs>
    <style>
      .cls-1, .cls-10 {
        fill: #007f3d;
      }

      .cls-1, .cls-12, .cls-4, .cls-7 {
        opacity: 0.1;
      }

      .cls-2 {
        fill: url(#linear-gradient);
      }

      .cls-3 {
        fill: #efb7b9;
      }

      .cls-5 {
        fill: #dce6f2;
      }

      .cls-6 {
        fill: #965d7b;
      }

      .cls-8 {
        fill: #444053;
      }

      .cls-9 {
        fill: #a36468;
      }

      .cls-11 {
        opacity: 0.05;
      }

      .cls-12 {
        fill: #fff;
      }

      .cls-13 {
        fill: #a8a8a8;
      }

      .cls-14 {
        opacity: 0.2;
      }
    </style>
    <linearGradient id="linear-gradient" y1="0.5" x2="1" y2="0.5" gradientUnits="objectBoundingBox">
      <stop offset="0" stop-color="gray" stop-opacity="0.251"/>
      <stop offset="0.54" stop-color="gray" stop-opacity="0.122"/>
      <stop offset="1" stop-color="gray" stop-opacity="0.102"/>
    </linearGradient>
  </defs>
  <g id="Empty" transform="translate(0.004 -0.003)">
    <ellipse id="Ellipse_1112" data-name="Ellipse 1112" class="cls-1" cx="34.887" cy="6.609" rx="34.887" ry="6.609" transform="translate(35.266 140.246)"/>
    <path id="Path_785" data-name="Path 785" class="cls-1" d="M211.428,77.1c-12.822-.444-25.033-4.584-36.694-9.113s-23.21-9.545-35.725-11.944c-8.049-1.543-17.255-1.763-23.739,2.548-6.242,4.16-8.259,11.322-9.343,17.972-.816,5-1.3,10.272.939,14.957,1.553,3.253,4.307,5.987,6.213,9.1,6.631,10.841,1.943,24.209-5.24,34.794-3.368,4.965-7.281,9.707-9.882,14.987s-3.8,11.35-1.527,16.75c2.254,5.349,7.629,9.359,13.452,12.182,11.825,5.735,25.754,7.376,39.346,8.307,30.079,2.056,60.316,1.167,90.475.273,11.161-.329,22.371-.664,33.35-2.389,6.1-.959,12.392-2.48,16.819-6.153a14.083,14.083,0,0,0,3.245-18.4c-6.316-9.806-23.773-12.241-28.193-22.763-2.429-5.793.065-12.243,3.6-17.614,7.576-11.524,20.273-21.634,20.94-34.8.46-9.046-5.644-18.105-15.082-22.386-9.892-4.487-23.611-3.923-30.905,3.5C235.956,74.554,222.75,77.5,211.428,77.1Z" transform="translate(-95.23 -55.03)"/>
    <path id="Path_786" data-name="Path 786" class="cls-2" d="M379.951,203.767l-6.068-4.091h0l3.061-4.557-16.027-1.278-5.759,4.453-7.209-4.041-6.013.723-.071-1.585a44.735,44.735,0,0,0-.5-4.933c.026-.5.044-1.064.042-1.682,0-2.605-.353-6.058-1.9-8.36l.357-3.205-2.892-3.417a21.864,21.864,0,0,1,1.585-2.667c.1-.143.2-.281.305-.416a7.193,7.193,0,0,0,6.716-7.132,4.565,4.565,0,0,0-.02-.521,1.884,1.884,0,0,0-.022-.21c.366.2.737.4,1.107.594.069.1.149.2.236.315h0l.018.022.111.137.036.042c.04.048.081.093.123.141l.028.032c.105.117.216.236.335.353a.353.353,0,0,1,.04.038l.149.139.042.038c.127.113.262.222.4.325l.044.032.17.117.055.036c.065.04.133.081.2.119l.024.014c.077.042.156.081.236.119l.04.016.2.083.061.022c.069.024.137.046.208.065l.044.012c.087.022.174.04.263.053h.01a2.158,2.158,0,0,0,.254.026h.057a2.182,2.182,0,0,0,.228,0h.05a2.344,2.344,0,0,0,.283-.034,3.126,3.126,0,0,0,1.248-.448,1.09,1.09,0,0,0,.254-.236.934.934,0,0,0-.04-1.088h0c-.155-.368-1.157-.628-1.157-.628s-3.17-1.323-3.17-2.377-.792-6.522-8.972-7.772c0,0-5.321-.3-6.817,2.55l-.032.333c-.44.275-.8.828-1.238.991a2.023,2.023,0,0,0-.537.2v-.038h0a.511.511,0,0,0-.121.157,1.585,1.585,0,0,0-.164.594,2.24,2.24,0,0,1-.259.719,1.6,1.6,0,0,1-.119.182h0l-.034.053a1.446,1.446,0,0,0,.674-.109,3.356,3.356,0,0,1-.2.792.658.658,0,0,0,.61-.365V157.2l.026-.036a1.675,1.675,0,0,0,.123-.287l-.022.024c.04-.129.075-.26.119-.386a.606.606,0,0,1,.1-.2.479.479,0,0,1,.41-.137l-.081,1.718h.036a2.341,2.341,0,0,1-.174.361c-.281.456-.792.767-.981,1.266a1.862,1.862,0,0,0-.091.749c0,.149.018.3.03.448V160.7a1.67,1.67,0,0,1-.178,1.092c-.147.218-.382.382-.464.63a.614.614,0,0,0-.03.214,2.4,2.4,0,0,0,.135.636.028.028,0,0,0,0-.012.967.967,0,0,1,.034.468c-.089.4-.571.727-.547,1.105a.426.426,0,0,0,.022.147.8.8,0,0,0,.448.4,1.744,1.744,0,0,0,1.006.222,1.323,1.323,0,0,0,.376-.129c-.139.319-.281.634-.426.933-.022.048-.046.1-.069.143,0,0-1.224-.818-1.92.85a3.7,3.7,0,0,0-.43,1.117,2.661,2.661,0,0,1-.147.46,2.958,2.958,0,0,1-1.323,1.189c-1.418.65-7.148,7.8-7.249,9.646a10.8,10.8,0,0,1-.365,2.136,12.71,12.71,0,0,0-.341,5.05,9.668,9.668,0,0,0,.351,1.611,36.09,36.09,0,0,1,1.014,5.3l.658,5.987a17.042,17.042,0,0,0,.107,2.474c-.672.767-3.368,3.962-2.338,4.832a3.8,3.8,0,0,0,2.958.432,25.175,25.175,0,0,0-1.825,6.381c-.2,2.867.339,6.664,1.189,8.123s3.683,5.2,3.683,5.2-.133,5.131.88,7a20.392,20.392,0,0,1,1.42,5.731s.945,3.265.471,4.465.878,2.2-.541,3-3.233,18.793-3.233,18.793-.731,11.793,0,12.394a.746.746,0,0,0,.125.073v3.962s-.507.832,1.555,1c1.413.113,5.416.368,7.792.517l1.84.115s4.358.868,6.284,0,5.339-.848,4.832-3.14a6.528,6.528,0,0,0-.269-.917c-.557-1.422-1.5-1.585-3.243-1.981-.1-.022-.2-.042-.287-.057-1.835-.319-2.437.535-3.465-.577-.893-.961-3.738-2.037-4.707-2.377.024-.071.053-.141.077-.214a1.45,1.45,0,0,1-.735-.359l2.625.166,1.563.1s3.7.739,5.349,0,4.537-.719,4.1-2.667a5.59,5.59,0,0,0-.228-.781c-.473-1.208-1.278-1.341-2.758-1.676-.085-.018-.164-.036-.244-.05-1.559-.271-2.07.454-2.944-.489a13.545,13.545,0,0,0-3.962-2.013c0-.44-.594-1.066-.969-1.694-.44-.733.372-3.3.372-3.3L336.5,251.7a2.054,2.054,0,0,1,.555-.158s2.1-2,1.622-4.133a13.7,13.7,0,0,1-.151-1.947,10.006,10.006,0,0,0,1.908-2.167c.44-.949,0-5.547,0-5.547V220.169l3.507.355,3.182.327.969.1,3.182.321,7.312.739,6.589-1.248,2.851-.539,5.862-1.109V204.77ZM331.69,156.239l-.408-.044C331.416,156.2,331.559,156.227,331.69,156.239Z" transform="translate(-273.942 -132.101)"/>
    <path id="Path_787" data-name="Path 787" class="cls-3" d="M496.365,434.727c-1.981,2.835-9.1,1.333-9.1,1.333l-5.519-5.165-.743-.7,1.246-2.647s.4.109,1.076.3C486.89,428.889,498.037,432.344,496.365,434.727Z" transform="translate(-404.579 -353.748)"/>
    <path id="Path_788" data-name="Path 788" class="cls-4" d="M483.318,427.853a11.622,11.622,0,0,1-1.575,3.043l-.743-.7,1.246-2.647S482.646,427.659,483.318,427.853Z" transform="translate(-404.579 -353.748)"/>
    <path id="Path_789" data-name="Path 789" class="cls-5" d="M377.532,278.083s-5.087,2.256-4.838,7.8a91.345,91.345,0,0,0,1.165,10.65s-1.04,8.338,3.291,10.488,8.338,3.917,8.338,3.917,6.775.729,7.617,1.03,3.473-4.3,2.987-5.02-6.7-2.221-7.5-3.417a6.615,6.615,0,0,0-2.625-1.936s-1.892-1.145-2.021-2.179a4.7,4.7,0,0,1,.5-2.258c.127-.454.448-4.834.448-4.834S387.031,276.73,377.532,278.083Z" transform="translate(-317.722 -233.825)"/>
    <path id="Path_790" data-name="Path 790" class="cls-4" d="M388.4,370.39s-6.979,1.169-6.3,3.612A14.8,14.8,0,0,1,388.4,370.39Z" transform="translate(-325.23 -307.912)"/>
    <path id="Path_791" data-name="Path 791" class="cls-4" d="M401.482,375.38s-3.837,3.132-3.087,3.293S401.482,375.38,401.482,375.38Z" transform="translate(-338.261 -311.913)"/>
    <path id="Path_792" data-name="Path 792" class="cls-4" d="M421.245,380.89s-1.028,2.106-.4,1.963S421.245,380.89,421.245,380.89Z" transform="translate(-356.179 -316.331)"/>
    <path id="Path_793" data-name="Path 793" class="cls-4" d="M397.754,309.052l-.424-.121a1.212,1.212,0,0,0,.055-.866c-.485-.717-6.7-2.219-7.491-3.417a6.58,6.58,0,0,0-2.625-1.936s-1.892-1.145-2.021-2.179a4.7,4.7,0,0,1,.5-2.258c.127-.454.448-4.836.448-4.836s2.13-15.589-7.37-14.236c0,0-5.087,2.258-4.84,7.8a91.1,91.1,0,0,0,1.167,10.65s-1.04,8.338,3.291,10.488,8.338,3.917,8.338,3.917,6.773.727,7.617,1.03c.319.115.9-.477,1.46-1.292l.321.3,5.519,5.163s7.122,1.5,9.1-1.331C412.475,313.541,401.33,310.086,397.754,309.052Z" transform="translate(-318.757 -234.723)"/>
    <path id="Path_794" data-name="Path 794" class="cls-6" d="M377.543,168.828a1.684,1.684,0,0,0-.549.212c-.2.164-.2.446-.248.691a2.274,2.274,0,0,1-.4.947,1.425,1.425,0,0,0,.66-.109,3.4,3.4,0,0,1-.2.792.642.642,0,0,0,.594-.363,3.813,3.813,0,0,0,.248-.7.573.573,0,0,1,.1-.2c.182-.216.521-.119.8-.091a1.317,1.317,0,0,0,1.2-.578c.3-.454.317-1.615-.4-1.737C378.614,167.576,378.151,168.6,377.543,168.828Z" transform="translate(-320.661 -145.367)"/>
    <g id="Group_1141" data-name="Group 1141" class="cls-7" transform="translate(55.719 23.621)">
      <path id="Path_795" data-name="Path 795" d="M378.233,174.545c.018-.1.03-.2.052-.3h0a1.162,1.162,0,0,0-.248.691,2.178,2.178,0,0,1-.117.418A2.27,2.27,0,0,0,378.233,174.545Z" transform="translate(-377.639 -174.25)"/>
      <path id="Path_796" data-name="Path 796" d="M377.158,180.792a3.294,3.294,0,0,0,.2-.792,1.418,1.418,0,0,1-.628.109,2.291,2.291,0,0,1-.228.4,1.41,1.41,0,0,0,.658-.107,3.294,3.294,0,0,1-.2.792.644.644,0,0,0,.594-.363,1.48,1.48,0,0,0,.119-.283A.594.594,0,0,1,377.158,180.792Z" transform="translate(-376.5 -178.861)"/>
      <path id="Path_797" data-name="Path 797" d="M384.767,175.235c-.281-.028-.622-.125-.8.091a.612.612,0,0,0-.1.2c-.018.052-.034.1-.048.158.188-.149.493-.069.749-.044a1.323,1.323,0,0,0,1.2-.578,1.1,1.1,0,0,0,.133-.311,1.319,1.319,0,0,1-1.139.485Z" transform="translate(-382.37 -174.651)"/>
    </g>
    <path id="Path_798" data-name="Path 798" class="cls-5" d="M313.094,201l3.021,3.633-.394,3.667-3.651-5.715Z" transform="translate(-250.249 -161.177)"/>
    <path id="Path_799" data-name="Path 799" class="cls-4" d="M316.113,204.633l-.37,3.449-.024.218-3.295-5.159-.355-.557.1-.16.919-1.424.2.246Z" transform="translate(-250.249 -161.177)"/>
    <path id="Path_800" data-name="Path 800" class="cls-3" d="M384.974,209.589a6.057,6.057,0,0,0-2.849,2.522,21.521,21.521,0,0,0-1.537,2.643c-.279.559-.525,1.1-.729,1.563l-.143.333c-.345.814-.537,1.359-.537,1.359s-7.825-5.884-6.587-6.28c.416-.133.963-1.024,1.5-2.148l.067-.143c.343-.721.68-1.525.979-2.282.612-1.555,1.066-2.906,1.066-2.906S388.094,208.7,384.974,209.589Z" transform="translate(-317.541 -174.685)"/>
    <path id="Path_801" data-name="Path 801" class="cls-8" d="M459.26,202.58s1.807,3.269,4.234,2.823,1.428-1.755,1.428-1.755Z" transform="translate(-387.146 -173.346)"/>
    <path id="Path_802" data-name="Path 802" class="cls-9" d="M382.683,742.5c-1.6.731-5.22,0-5.22,0l-1.525-.1c-1.981-.127-5.3-.341-6.47-.436-1.712-.141-1.292-.842-1.292-.842v-4.238l8.3-2.1s3.283,1.123,4.182,2.1c.854.935,1.353.216,2.877.485.075.014.155.03.238.05,1.446.331,2.231.462,2.694,1.66a5.568,5.568,0,0,1,.224.773C387.123,741.791,384.282,741.777,382.683,742.5Z" transform="translate(-314.069 -600.12)"/>
    <path id="Path_803" data-name="Path 803" class="cls-4" d="M386.471,749.57a6.208,6.208,0,0,1-.935.479c-1.09.5-2.126,1.1-3.227,1.573a7.547,7.547,0,0,1-3.481.715,5.192,5.192,0,0,0-1.858-.02,4.3,4.3,0,0,0-1.032.573c-1.981-.127-5.3-.341-6.47-.436-1.712-.141-1.292-.842-1.292-.842v-.5c.061,0,.131-.018.21-.024a3.741,3.741,0,0,1,1.208.18c.86.234,1.716.464,2.575.693a2.035,2.035,0,0,1,.991-1.264,3.157,3.157,0,0,1,1.6-.366c1.333.018,2.6.65,3.927.713a2.164,2.164,0,0,0,1.088-.182c.182-.091.343-.224.521-.325a3.8,3.8,0,0,1,.9-.3,19.768,19.768,0,0,0,2.566-.828c.238-.093.515-.261.483-.515-.042-.337-.571-.376-.709-.685a.4.4,0,0,1,.016-.351c.075.014.155.03.238.05C385.223,748.24,386.008,748.371,386.471,749.57Z" transform="translate(-314.069 -610.601)"/>
    <path id="Path_804" data-name="Path 804" class="cls-9" d="M363.749,783.779c-1.882.86-6.141,0-6.141,0l-1.793-.105c-2.322-.149-6.232-.4-7.613-.513-2.015-.166-1.52-.991-1.52-.991v-4.994l9.773-2.476s3.863,1.321,4.921,2.476c1,1.1,1.585.254,3.386.571.089.016.182.036.279.057,1.7.4,2.625.545,3.17,1.955a6.357,6.357,0,0,1,.263.909C368.966,782.939,365.631,782.922,363.749,783.779Z" transform="translate(-296.827 -632.124)"/>
    <path id="Path_805" data-name="Path 805" class="cls-4" d="M368.207,792.133a7.369,7.369,0,0,1-1.1.565c-1.282.584-2.5,1.3-3.8,1.85a8.9,8.9,0,0,1-4.1.842,5.979,5.979,0,0,0-2.179-.024,5.053,5.053,0,0,0-1.218.682c-2.322-.149-6.232-.4-7.613-.513-2.015-.167-1.52-.991-1.52-.991v-.583q.123-.02.248-.028a4.347,4.347,0,0,1,1.422.212l3.029.816a2.4,2.4,0,0,1,1.175-1.488,3.7,3.7,0,0,1,1.88-.432c1.569.022,3.053.765,4.62.84a2.556,2.556,0,0,0,1.276-.212c.216-.109.4-.265.614-.382a4.31,4.31,0,0,1,1.056-.357,23.719,23.719,0,0,0,3-.975c.279-.111.606-.309.569-.606-.05-.4-.672-.444-.836-.808a.477.477,0,0,1,.02-.412c.089.016.182.036.279.057C366.739,790.568,367.662,790.722,368.207,792.133Z" transform="translate(-296.827 -644.497)"/>
    <path id="Path_806" data-name="Path 806" class="cls-8" d="M385.272,647.54l-.529,12.447s-.792,2.542-.363,3.269,1.155,1.452.892,1.882-3.433,5.078-4.457,3.295-2.035-9.509-2.035-9.509l.945-9.543Z" transform="translate(-322.609 -530.155)"/>
    <path id="Path_807" data-name="Path 807" class="cls-8" d="M411.1,491l1.47,1.965v17.093s.43,4.556,0,5.5a14.753,14.753,0,0,1-2.609,2.823l-1.832-9.41.4-9.955Z" transform="translate(-346.145 -404.628)"/>
    <path id="Path_808" data-name="Path 808" class="cls-4" d="M385.272,647.54l-.529,12.447s-.792,2.542-.363,3.269,1.155,1.452.892,1.882-3.433,5.078-4.457,3.295-2.035-9.509-2.035-9.509l.945-9.543Z" transform="translate(-322.609 -530.155)"/>
    <path id="Path_809" data-name="Path 809" class="cls-4" d="M411.1,491l1.47,1.965v17.093s.43,4.556,0,5.5a14.753,14.753,0,0,1-2.609,2.823l-1.832-9.41.4-9.955Z" transform="translate(-346.145 -404.628)"/>
    <path id="Path_810" data-name="Path 810" class="cls-8" d="M347.514,434.955V444.2l-1.65,7.2s-.529,17.368-.067,19.48-1.585,4.095-1.585,4.095-1.189.133-1.189,1.056-1.981,3.566-1.981,3.566l.065,5.151s.86,9.642-.462,11.49.462,2.114.462,2.114c-1.65,5.414-9.575,4.16-10.29,3.566s0-12.283,0-12.283,1.771-17.83,3.158-18.622.067-1.783.529-2.972-.462-4.424-.462-4.424a20.385,20.385,0,0,0-1.387-5.68c-.99-1.848-.86-6.934-.86-6.934s-2.774-3.7-3.6-5.151-1.355-5.216-1.157-8.057a25.316,25.316,0,0,1,1.783-6.324c.307-.771.529-1.27.529-1.27l.188.05,10.821,2.833Z" transform="translate(-281.088 -355.873)"/>
    <path id="Path_811" data-name="Path 811" class="cls-4" d="M395.824,209.533a6.057,6.057,0,0,0-2.849,2.522h-.222a7.076,7.076,0,0,1-6.141-3.552,6.969,6.969,0,0,1-.622-1.416c.612-1.555,1.066-2.906,1.066-2.906S398.944,208.641,395.824,209.533Z" transform="translate(-328.391 -174.629)"/>
    <path id="Path_812" data-name="Path 812" class="cls-3" d="M398.545,177.511a7.082,7.082,0,1,1-13.25-3.471,6.922,6.922,0,0,1,.749-1.082,7.168,7.168,0,0,1,1.628-1.43,7.082,7.082,0,0,1,10.862,5.464C398.539,177.166,398.545,177.338,398.545,177.511Z" transform="translate(-327.1 -147.56)"/>
    <path id="Path_813" data-name="Path 813" class="cls-4" d="M383.035,242.592l-.024.218-3.295-5.151c-.345.814-.537,1.359-.537,1.359s-7.825-5.892-6.587-6.288c.416-.133.963-1.024,1.5-2.147l.067-.143c.574,1.712,3.913,5.133,5.3,6.5.16.158.293.289.4.384l.212.2.111.111C380.689,238.158,382.821,240.456,383.035,242.592Z" transform="translate(-317.541 -195.687)"/>
    <path id="Path_814" data-name="Path 814" class="cls-5" d="M343.821,259.836l-.361,11.6-.063,2.066s-4.271-.4-8.257-.832a53.779,53.779,0,0,1-6.7-.951,12.609,12.609,0,0,0-2.873-.632c-.777-.105-1.387-.16-1.387-.16s-.228.067-.578.131a3.675,3.675,0,0,1-2.89-.428c-1-.87,1.628-4.03,2.284-4.788l.145-.164-.248-2.288-.644-5.933a36.2,36.2,0,0,0-.991-5.25,9.682,9.682,0,0,1-.343-1.595,12.774,12.774,0,0,1,.333-5,10.914,10.914,0,0,0,.357-2.118c.1-1.832,5.7-8.915,7.082-9.559a2.94,2.94,0,0,0,1.418-1.414,2.7,2.7,0,0,0,.216-.616c.594-2.575,2.1-1.553,2.1-1.553.363,2.015,5.975,7.348,5.975,7.348l.111.111c.557.571,3.037,3.249,2.861,5.535a6.709,6.709,0,0,0,.374,2.5,42.346,42.346,0,0,1,1.951,11.094Z" transform="translate(-275.865 -195.454)"/>
    <path id="Path_815" data-name="Path 815" class="cls-4" d="M387.6,310.45s-1.387,3.368-2.427,3.913S388.095,315.512,387.6,310.45Z" transform="translate(-327.595 -259.846)"/>
    <path id="Path_816" data-name="Path 816" class="cls-4" d="M390.55,342.2s-3.17.4-3.17.991S390.55,342.2,390.55,342.2Z" transform="translate(-329.506 -285.306)"/>
    <path id="Path_817" data-name="Path 817" class="cls-4" d="M395.648,361.7s-4.606,9.806-5.894,10.1S395.648,361.7,395.648,361.7Z" transform="translate(-331.286 -300.943)"/>
    <path id="Path_818" data-name="Path 818" class="cls-4" d="M376.408,239.758l-3.81,1.656-4.6-6.946a2.7,2.7,0,0,0,.216-.616c.594-2.575,2.1-1.553,2.1-1.553.363,2.015,5.975,7.348,5.975,7.348Z" transform="translate(-313.965 -197.018)"/>
    <path id="Path_819" data-name="Path 819" class="cls-5" d="M377.408,237.758l-3.81,1.656-4.6-6.946a2.705,2.705,0,0,0,.216-.616c.594-2.575,2.1-1.553,2.1-1.553.363,2.015,5.975,7.348,5.975,7.348Z" transform="translate(-314.767 -195.414)"/>
    <path id="Path_820" data-name="Path 820" class="cls-4" d="M351.729,322.969s-4.271-.4-8.257-.832l7.152,1.872v2.179c-.313.283-.584.43-.761.355-.824-.347-7.55-1.436-7.55-1.436s-3.907-1.981-8.122-4.358a3.251,3.251,0,0,1-.3-.186,4.682,4.682,0,0,1-1.248-1.25,8.872,8.872,0,0,1-1.323-4,17.273,17.273,0,0,1-.1-2.453,20.1,20.1,0,0,1,.254-2.772,91.144,91.144,0,0,1-.594-10.7c.049-5.547,5.25-7.528,5.25-7.528,9.559-.842,6.6,14.611,6.6,14.611s-.553,4.358-.7,4.8a4.7,4.7,0,0,0-.618,2.229c.073,1.04,1.9,2.284,1.9,2.284a6.67,6.67,0,0,1,2.518,2.074c.535.913,4.01,2.151,5.973,3.035Z" transform="translate(-284.197 -244.917)"/>
    <path id="Path_821" data-name="Path 821" class="cls-4" d="M397.777,169.381a2.242,2.242,0,0,1-.2.947,5.848,5.848,0,0,1-.353.705,3.249,3.249,0,0,1-.868,1.078,4.439,4.439,0,0,1-1.585.551,2.294,2.294,0,0,0-1.432.812,2.841,2.841,0,0,0-.335.971,2.089,2.089,0,0,1-.4.939.779.779,0,0,1-.927.222.937.937,0,0,1-.359-.462,6.623,6.623,0,0,1-.374-1.623,3.452,3.452,0,0,0-.557-1.555,1.393,1.393,0,0,0-1.462-.561,1.409,1.409,0,0,0-.792.769,4.409,4.409,0,0,0-.3,1.094q-.368,2.017-.87,4.01a.367.367,0,0,1-.065.151.285.285,0,0,1-.2.083c-.444.059-.87-.252-1.317-.218a.759.759,0,0,0-.137.022,7.079,7.079,0,0,1,.715-8.083l.036-.01a2.136,2.136,0,0,0,.792-.5,8.354,8.354,0,0,0,.792-.917l.159-.2a9.037,9.037,0,0,1,1.545-1.468,1.585,1.585,0,0,1,.527-.285,1.561,1.561,0,0,1,.5-.016,12.6,12.6,0,0,0,2.062.077,13.224,13.224,0,0,1,1.448-.147,4.458,4.458,0,0,1,3.116,1.892A2.931,2.931,0,0,1,397.777,169.381Z" transform="translate(-327.043 -143.829)"/>
    <path id="Path_822" data-name="Path 822" class="cls-6" d="M376.056,169.719c-.275.452-.773.759-.959,1.254-.273.719.188,1.615-.236,2.256-.141.216-.372.376-.452.624-.135.418.234.864.139,1.294s-.662.792-.511,1.212a.793.793,0,0,0,.436.4,1.7,1.7,0,0,0,.991.22c.541-.089.943-.62,1.492-.66.446-.032.872.277,1.315.22a.3.3,0,0,0,.2-.085.344.344,0,0,0,.065-.151q.5-1.991.872-4.01a4.32,4.32,0,0,1,.3-1.094,1.42,1.42,0,0,1,.792-.769,1.4,1.4,0,0,1,1.462.561,3.431,3.431,0,0,1,.559,1.555,6.707,6.707,0,0,0,.372,1.623.947.947,0,0,0,.361.464.776.776,0,0,0,.925-.222,2.066,2.066,0,0,0,.4-.941,2.829,2.829,0,0,1,.335-.969,2.3,2.3,0,0,1,1.432-.812,4.483,4.483,0,0,0,1.585-.553,3.261,3.261,0,0,0,.868-1.076,3.167,3.167,0,0,0,.543-1.654,3.036,3.036,0,0,0-.812-1.714,4.453,4.453,0,0,0-3.118-1.89,12.326,12.326,0,0,0-1.448.147,12.394,12.394,0,0,1-2.062-.079,1.62,1.62,0,0,0-.5.018,1.494,1.494,0,0,0-.525.285,9.04,9.04,0,0,0-1.547,1.466,11.353,11.353,0,0,1-.955,1.109,2.149,2.149,0,0,1-.792.5c-.2.055-.4.016-.584.077C376.4,168.509,376.328,169.271,376.056,169.719Z" transform="translate(-318.786 -143.051)"/>
    <path id="Path_823" data-name="Path 823" class="cls-4" d="M463.494,205.4c-1.585.291-2.9-.991-3.625-1.926a7.778,7.778,0,0,1-.608-.9l5.44,1.026.22.042S465.92,204.957,463.494,205.4Z" transform="translate(-387.146 -173.346)"/>
    <g id="Group_1142" data-name="Group 1142" class="cls-7" transform="translate(55.216 25.157)">
      <path id="Path_824" data-name="Path 824" d="M376.037,211.091a1.651,1.651,0,0,0-.115-.761c0,.02-.018.04-.024.059a1.475,1.475,0,0,0,.1.816A.594.594,0,0,0,376.037,211.091Z" transform="translate(-375.491 -204.718)"/>
      <path id="Path_825" data-name="Path 825" d="M379.051,197.8a4.4,4.4,0,0,0,.016.822A4.415,4.415,0,0,0,379.051,197.8Z" transform="translate(-378.033 -194.67)"/>
      <path id="Path_826" data-name="Path 826" d="M388.74,183.278a3.249,3.249,0,0,1-.868,1.078,4.425,4.425,0,0,1-1.585.551,2.288,2.288,0,0,0-1.432.812,2.854,2.854,0,0,0-.335.971,2.074,2.074,0,0,1-.4.941.773.773,0,0,1-.925.222.947.947,0,0,1-.361-.464,6.6,6.6,0,0,1-.372-1.623,3.423,3.423,0,0,0-.559-1.555,1.393,1.393,0,0,0-1.462-.561,1.414,1.414,0,0,0-.792.769,4.317,4.317,0,0,0-.3,1.094q-.37,2.019-.872,4.01a.343.343,0,0,1-.065.151.3.3,0,0,1-.2.085c-.444.057-.87-.252-1.315-.22-.549.04-.951.571-1.492.658a1.674,1.674,0,0,1-.991-.22,1.059,1.059,0,0,1-.363-.258.535.535,0,0,0-.073.462.773.773,0,0,0,.436.4,1.674,1.674,0,0,0,.991.22c.541-.087.943-.618,1.492-.658.446-.032.872.277,1.315.22a.3.3,0,0,0,.2-.085.343.343,0,0,0,.065-.151q.5-1.981.872-4.01a4.317,4.317,0,0,1,.3-1.094,1.415,1.415,0,0,1,.792-.769,1.394,1.394,0,0,1,1.462.561,3.431,3.431,0,0,1,.559,1.555,6.711,6.711,0,0,0,.372,1.623.947.947,0,0,0,.361.464.776.776,0,0,0,.925-.222,2.074,2.074,0,0,0,.4-.941,2.854,2.854,0,0,1,.335-.971,2.308,2.308,0,0,1,1.432-.812,4.518,4.518,0,0,0,1.585-.551,3.249,3.249,0,0,0,.868-1.078,3.154,3.154,0,0,0,.543-1.652,2.124,2.124,0,0,0-.024-.226,3.893,3.893,0,0,1-.519,1.278Z" transform="translate(-373.964 -182)"/>
    </g>
    <path id="Path_827" data-name="Path 827" class="cls-4" d="M401.324,174.06a7,7,0,0,1,.882,2.942c-1.765-.991-3.425-2.078-4.263-2.457-1.46-.66-6.92-.561-8.972-.5a6.923,6.923,0,0,1,.749-1.082,7.167,7.167,0,0,1,1.634-1.43,7.086,7.086,0,0,1,9.981,2.522Z" transform="translate(-330.781 -147.566)"/>
    <path id="Path_828" data-name="Path 828" class="cls-4" d="M463.989,204.561c-.953.293-2.508-.273-4.121-1.086a7.778,7.778,0,0,1-.608-.9l5.44,1.026C465.061,203.852,465.152,204.2,463.989,204.561Z" transform="translate(-387.146 -173.346)"/>
    <path id="Path_829" data-name="Path 829" class="cls-8" d="M392.414,154.044s-5.2-.3-6.662,2.526l-.236,2.5-.4-.044-.079,1.7s7.948-.347,9.757.47,7.429,4.929,9.682,4.236-.2-1.337-.2-1.337-3.1-1.313-3.1-2.344S400.411,155.282,392.414,154.044Z" transform="translate(-327.629 -134.418)"/>
    <path id="Path_830" data-name="Path 830" class="cls-4" d="M371.63,622.28s3.318,3.219,4.755,2.972C376.385,625.252,372.323,624.9,371.63,622.28Z" transform="translate(-316.876 -509.9)"/>
    <path id="Path_831" data-name="Path 831" class="cls-4" d="M368.13,629.81s.3,1.656,1.09,1.494S368.13,629.81,368.13,629.81Z" transform="translate(-314.069 -515.938)"/>
    <path id="Path_832" data-name="Path 832" class="cls-4" d="M378.161,769.53s-4.711,3.665-3.917,3.764S378.161,769.53,378.161,769.53Z" transform="translate(-318.9 -627.978)"/>
    <path id="Path_833" data-name="Path 833" class="cls-10" d="M330.96,337.282l15.254-2.482v14.442l-14.494-.759Z" transform="translate(-265.397 -268.47)"/>
    <path id="Path_834" data-name="Path 834" class="cls-11" d="M330.96,337.282l15.254-2.482v14.442l-14.494-.759Z" transform="translate(-265.397 -268.47)"/>
    <path id="Path_835" data-name="Path 835" class="cls-10" d="M407.96,334.8l18.293,1.369-1.012,12.568-17.281.505Z" transform="translate(-327.143 -268.47)"/>
    <path id="Path_836" data-name="Path 836" class="cls-4" d="M407.96,334.8l18.293,1.369-1.012,12.568-17.281.505Z" transform="translate(-327.143 -268.47)"/>
    <path id="Path_837" data-name="Path 837" class="cls-10" d="M413.584,312.55l-5.624,4.408,18.293,1.369,2.99-4.511Z" transform="translate(-327.143 -250.628)"/>
    <path id="Path_838" data-name="Path 838" class="cls-10" d="M303.08,316.262l13.733-1.672,7.045,4L308.6,321.076Z" transform="translate(-243.04 -252.264)"/>
    <path id="Path_839" data-name="Path 839" class="cls-10" d="M349.558,348.6v19.746l-7.146-.733-3.108-.317-.947-.1-3.106-.319-4.291-.44V347.33l15.252,1.038Z" transform="translate(-265.397 -278.518)"/>
    <path id="Path_840" data-name="Path 840" class="cls-10" d="M439.789,341.71v19.256l-5.727,1.1-2.785.535-6.437,1.236V344.091Z" transform="translate(-340.678 -274.011)"/>
    <path id="Path_841" data-name="Path 841" class="cls-11" d="M439.789,341.71v19.256l-5.727,1.1-2.785.535-6.437,1.236V344.091Z" transform="translate(-340.678 -274.011)"/>
    <path id="Path_842" data-name="Path 842" class="cls-10" d="M303.08,351.486l5.523-4.156,18.6,1.268-2.738,4.612Z" transform="translate(-243.04 -278.518)"/>
    <path id="Path_843" data-name="Path 843" class="cls-12" d="M303.08,351.486l5.523-4.156,18.6,1.268-2.738,4.612Z" transform="translate(-243.04 -278.518)"/>
    <path id="Path_844" data-name="Path 844" class="cls-10" d="M439.789,341.71l-14.949,2.381,4.866,4.358,16.013-2.686Z" transform="translate(-340.678 -274.011)"/>
    <path id="Path_845" data-name="Path 845" class="cls-12" d="M439.789,341.71l-14.949,2.381,4.866,4.358,16.013-2.686Z" transform="translate(-340.678 -274.011)"/>
    <path id="Path_846" data-name="Path 846" class="cls-12" d="M460.115,427.308l-2.785.535v-4.115l2.609-.658Z" transform="translate(-366.732 -339.253)"/>
    <path id="Path_847" data-name="Path 847" class="cls-12" d="M376.188,435.96v2.722l-3.108-.317V435.96Z" transform="translate(-299.173 -349.59)"/>
    <path id="Path_848" data-name="Path 848" class="cls-12" d="M355.726,440.29v1.448l-3.106-.319V440.29Z" transform="translate(-282.766 -353.062)"/>
    <path id="Path_849" data-name="Path 849" class="cls-4" d="M449.518,451.624c-2.13,2.724-9.163.842-9.163.842l-5.226-5.452-.709-.739,1.387-2.575s.4.131,1.058.361C440.367,445.285,451.311,449.332,449.518,451.624Z" transform="translate(-367.227 -366.698)"/>
    <path id="Path_850" data-name="Path 850" class="cls-3" d="M448.518,449.624c-2.13,2.724-9.163.842-9.163.842l-5.226-5.452-.709-.739,1.387-2.575s.4.131,1.058.361C439.367,443.285,450.311,447.332,448.518,449.624Z" transform="translate(-366.425 -365.094)"/>
    <path id="Path_851" data-name="Path 851" class="cls-4" d="M435.825,442.061a11.71,11.71,0,0,1-1.735,2.954l-.709-.739,1.387-2.575S435.165,441.831,435.825,442.061Z" transform="translate(-366.393 -365.094)"/>
    <path id="Path_852" data-name="Path 852" class="cls-5" d="M337.128,287.863s-5.2,1.981-5.25,7.528a91.152,91.152,0,0,0,.594,10.7s-1.486,8.271,2.724,10.648,8.122,4.358,8.122,4.358,6.726,1.09,7.552,1.436,3.7-4.111,3.251-4.854-6.569-2.575-7.3-3.814a6.6,6.6,0,0,0-2.518-2.072s-1.827-1.246-1.9-2.286a4.681,4.681,0,0,1,.618-2.229c.153-.446.705-4.8.705-4.8S346.687,287.011,337.128,287.863Z" transform="translate(-284.999 -241.706)"/>
    <path id="Path_853" data-name="Path 853" class="cls-4" d="M344,380.7s-7.033.792-6.488,3.269A14.8,14.8,0,0,1,344,380.7Z" transform="translate(-289.49 -316.179)"/>
    <path id="Path_854" data-name="Path 854" class="cls-4" d="M356.825,385.7s-3.992,2.922-3.259,3.12S356.825,385.7,356.825,385.7Z" transform="translate(-302.319 -320.189)"/>
    <path id="Path_855" data-name="Path 855" class="cls-4" d="M376.577,391.7s-1.139,2.048-.5,1.941S376.577,391.7,376.577,391.7Z" transform="translate(-320.288 -325)"/>
    <path id="Path_856" data-name="Path 856" class="cls-10" d="M721.8,167.381s-7.528-.454-6.649,4.828a1.288,1.288,0,0,0,.67,1.357s.014-.4.773-.26a3.469,3.469,0,0,0,.818.04,1.7,1.7,0,0,0,1-.414h0s2.118-.874,2.942-4.337c0,0,.61-.757.594-.951l-1.272.545a2.279,2.279,0,0,1,.091,1.68s-.04-1.646-.285-1.609c-.05,0-.66.319-.66.319a3.757,3.757,0,0,1,.182,2.76s.214-1.969-.416-2.645l-.9.523a3.952,3.952,0,0,1,.281,3s.153-2.066-.47-2.871l-.812.632a3.867,3.867,0,0,1,.321,2.746s-.065-2.405-.5-2.587a4.9,4.9,0,0,0-.816.884s.561,1.189.212,1.8c0,0-.214-1.6-.4-1.611a5.332,5.332,0,0,0-.78,1.783,3.855,3.855,0,0,1,.608-1.89,2.122,2.122,0,0,0-1.082.561s.109-.751,1.256-.816a5.422,5.422,0,0,1,.741-.856,4.645,4.645,0,0,0-1.832.212,2.076,2.076,0,0,1,2.043-.4l.792-.654a6.835,6.835,0,0,0-2.14.022,2.6,2.6,0,0,1,2.356-.17l.872-.521a7.826,7.826,0,0,0-2.042-.176,3.134,3.134,0,0,1,2.3.036l.624-.279s-.939-.184-1.212-.214-.289-.105-.289-.105a3.241,3.241,0,0,1,1.761.2A7.774,7.774,0,0,0,721.8,167.381Z" transform="translate(-592.284 -145.112)"/>
    <path id="Path_857" data-name="Path 857" class="cls-1" d="M837.259,300.721s-7.528-.454-6.648,4.828a1.289,1.289,0,0,0,.67,1.357s.014-.4.775-.26a3.469,3.469,0,0,0,.818.04,1.7,1.7,0,0,0,.991-.412h0s2.12-.876,2.944-4.339c0,0,.608-.755.584-.949l-1.272.543a2.285,2.285,0,0,1,.093,1.68s-.042-1.646-.285-1.609c-.05,0-.662.319-.662.319a3.756,3.756,0,0,1,.184,2.76s.214-1.969-.418-2.645l-.885.517a3.952,3.952,0,0,1,.281,3s.153-2.066-.469-2.871l-.81.634a3.872,3.872,0,0,1,.321,2.744s-.065-2.405-.5-2.587a4.967,4.967,0,0,0-.818.884s.563,1.189.214,1.8c0,0-.214-1.6-.4-1.611a5.332,5.332,0,0,0-.781,1.783,3.867,3.867,0,0,1,.61-1.89,2.132,2.132,0,0,0-1.084.561s.111-.751,1.258-.816a4.946,4.946,0,0,1,.741-.856,4.645,4.645,0,0,0-1.833.212,2.058,2.058,0,0,1,2.041-.386l.792-.654a6.836,6.836,0,0,0-2.139.022,2.6,2.6,0,0,1,2.355-.17l.872-.521a7.938,7.938,0,0,0-2.045-.176,3.14,3.14,0,0,1,2.3.036l.624-.279s-.939-.184-1.214-.214-.289-.105-.289-.105a3.247,3.247,0,0,1,1.763.2A7.993,7.993,0,0,0,837.259,300.721Z" transform="translate(-684.871 -252.036)"/>
    <path id="Path_858" data-name="Path 858" class="cls-1" d="M612.812,246.95s1.733-7.348-3.623-7.374a1.287,1.287,0,0,0-1.45.428s.382.081.123.806a3.53,3.53,0,0,0-.178.792,1.7,1.7,0,0,0,.236,1.056h0s.5,2.239,3.764,3.641c0,0,.642.729.836.737l-.317-1.345a2.276,2.276,0,0,1-1.672-.2s1.63.24,1.632,0c0-.05-.2-.705-.2-.705a3.761,3.761,0,0,1-2.752-.291s1.9.547,2.678.042l-.357-.975a3.954,3.954,0,0,1-3-.234s2.011.5,2.91.028l-.485-.907a3.871,3.871,0,0,1-2.76-.153s2.377.345,2.635-.048a4.92,4.92,0,0,0-.731-.957s-1.26.353-1.815-.1c0,0,1.615.061,1.652-.109a5.341,5.341,0,0,0-1.63-1.076,3.883,3.883,0,0,1,1.761.923,2.138,2.138,0,0,0-.369-1.163s.721.238.594,1.387a4.936,4.936,0,0,1,.715.876,4.658,4.658,0,0,0,.1-1.842,2.059,2.059,0,0,1,.034,2.078l.507.9A6.574,6.574,0,0,0,612,241.06a2.6,2.6,0,0,1-.234,2.35l.367.949a7.933,7.933,0,0,0,.521-1.981,3.132,3.132,0,0,1-.428,2.26l.17.662s.341-.893.416-1.159.153-.267.153-.267a3.243,3.243,0,0,1-.493,1.7A7.879,7.879,0,0,0,612.812,246.95Z" transform="translate(-506.157 -202.955)"/>
    <path id="Path_859" data-name="Path 859" class="cls-1" d="M515.721,282.027s-6.046-4.523-8.208.376a1.289,1.289,0,0,0-.186,1.5s.226-.319.792.21a3.469,3.469,0,0,0,.662.483,1.7,1.7,0,0,0,1.064.2h0s2.251.434,4.842-2c0,0,.925-.3,1.012-.471l-1.365-.24a2.289,2.289,0,0,1-.846,1.454s.87-1.4.644-1.5c-.046-.022-.727-.1-.727-.1a3.759,3.759,0,0,1-1.363,2.407s1.262-1.527,1.105-2.439l-1.036-.055a3.952,3.952,0,0,1-1.413,2.661s1.262-1.642,1.189-2.657l-1.026.083a3.861,3.861,0,0,1-1.24,2.466s1.266-2.044,1.006-2.433a4.98,4.98,0,0,0-1.169.287s-.18,1.3-.814,1.625c0,0,.7-1.456.561-1.557a5.325,5.325,0,0,0-1.636,1.064,3.87,3.87,0,0,1,1.549-1.244,2.134,2.134,0,0,0-1.212-.127s.5-.567,1.5.01a5,5,0,0,1,1.09-.307,4.636,4.636,0,0,0-1.648-.83,2.063,2.063,0,0,1,1.92.792l1.028-.1a6.784,6.784,0,0,0-1.8-1.157s.957-.121,2.06,1.151l1.014.046a7.908,7.908,0,0,0-1.609-1.272,3.133,3.133,0,0,1,1.9,1.294l.675.109s-.683-.67-.9-.844-.184-.248-.184-.248a3.255,3.255,0,0,1,1.365,1.133A8.011,8.011,0,0,0,515.721,282.027Z" transform="translate(-425.553 -235.528)"/>
    <path id="Path_860" data-name="Path 860" class="cls-1" d="M617.331,69.913s-6.046-4.525-8.208.376a1.289,1.289,0,0,0-.186,1.5s.226-.319.792.21a3.522,3.522,0,0,0,.664.481,1.7,1.7,0,0,0,1.064.2h0s2.25.434,4.842-2.007c0,0,.925-.3,1.01-.472l-1.365-.236a2.278,2.278,0,0,1-.846,1.454s.872-1.4.646-1.5c-.046-.022-.727-.1-.727-.1a3.776,3.776,0,0,1-1.371,2.407s1.26-1.527,1.105-2.439l-1.036-.055a3.955,3.955,0,0,1-1.413,2.659s1.262-1.642,1.189-2.657l-1.024.083a3.871,3.871,0,0,1-1.242,2.468s1.268-2.044,1.008-2.433a4.979,4.979,0,0,0-1.169.287s-.18,1.3-.814,1.624c0,0,.7-1.456.561-1.559a5.345,5.345,0,0,0-1.636,1.066,3.851,3.851,0,0,1,1.549-1.244,2.12,2.12,0,0,0-1.214-.127s.505-.567,1.5.01a4.893,4.893,0,0,1,1.09-.307,4.661,4.661,0,0,0-1.648-.832,2.066,2.066,0,0,1,1.918.792l1.028-.1a6.792,6.792,0,0,0-1.8-1.159s.957-.119,2.062,1.153l1.014.044a7.825,7.825,0,0,0-1.611-1.27,3.134,3.134,0,0,1,1.9,1.294l.673.109s-.685-.662-.9-.832-.184-.246-.184-.246a3.249,3.249,0,0,1,1.365,1.133A8.552,8.552,0,0,0,617.331,69.913Z" transform="translate(-507.034 -65.435)"/>
    <path id="Path_861" data-name="Path 861" class="cls-1" d="M736.32,86.323s-2.417-7.154-6.975-4.343a1.3,1.3,0,0,0-1,1.131s.367-.135.529.618a3.566,3.566,0,0,0,.271.775,1.716,1.716,0,0,0,.761.771h0s1.609,1.634,5.127,1.094c0,0,.929.281,1.1.184l-.991-.973a2.279,2.279,0,0,1-1.521.717s1.512-.658,1.387-.87c-.026-.042-.543-.491-.543-.491a3.765,3.765,0,0,1-2.488,1.208s1.9-.543,2.292-1.387l-.82-.632a3.948,3.948,0,0,1-2.673,1.387s1.981-.636,2.482-1.516l-.891-.513a3.833,3.833,0,0,1-2.421,1.329s2.2-.965,2.209-1.432a4.954,4.954,0,0,0-1.125-.426s-.884.965-1.585.878c0,0,1.4-.8,1.343-.967a5.315,5.315,0,0,0-1.951-.05,3.861,3.861,0,0,1,1.981-.149,2.138,2.138,0,0,0-.929-.792s.737-.18,1.23.858a4.987,4.987,0,0,1,1.07.365,4.656,4.656,0,0,0-.885-1.619,2.063,2.063,0,0,1,1.127,1.747l.907.5a6.686,6.686,0,0,0-.826-1.981s.858.444,1.044,2.118l.812.612a7.876,7.876,0,0,0-.606-1.961,3.136,3.136,0,0,1,.832,2.146l.493.471s-.182-.939-.257-1.2-.014-.283-.014-.283a3.266,3.266,0,0,1,.481,1.708A7.893,7.893,0,0,0,736.32,86.323Z" transform="translate(-602.918 -76.114)"/>
    <path id="Path_862" data-name="Path 862" class="cls-1" d="M660.971,108.137s-7.508-.836-6.888,4.491a1.286,1.286,0,0,0,.594,1.387s.034-.4.792-.218a3.645,3.645,0,0,0,.816.081,1.7,1.7,0,0,0,1.02-.363h0s2.161-.767,3.17-4.184c0,0,.646-.723.632-.919l-1.3.479a2.209,2.209,0,0,1,0,1.682s.042-1.646-.2-1.621c-.049,0-.675.285-.675.285a3.779,3.779,0,0,1,.044,2.774s.313-1.957-.283-2.663l-.921.475a3.938,3.938,0,0,1,.129,3.009s.258-2.056-.323-2.89l-.842.594a3.868,3.868,0,0,1,.18,2.758s.057-2.405-.365-2.609a5.151,5.151,0,0,0-.862.84s.5,1.208.123,1.813c0,0-.133-1.611-.307-1.626a5.329,5.329,0,0,0-.872,1.747,3.857,3.857,0,0,1,.705-1.858,2.132,2.132,0,0,0-1.109.505s.147-.743,1.3-.751c0,0,.624-.775.792-.816a4.658,4.658,0,0,0-1.842.119,2.055,2.055,0,0,1,2.058-.283l.834-.612a6.425,6.425,0,0,0-2.146-.107,2.58,2.58,0,0,1,2.361-.05l.9-.477a7.888,7.888,0,0,0-2.033-.279,3.112,3.112,0,0,1,2.294.153l.638-.248s-.929-.232-1.2-.275-.283-.119-.283-.119a3.259,3.259,0,0,1,1.751.285A8.1,8.1,0,0,0,660.971,108.137Z" transform="translate(-543.343 -97.575)"/>
    <path id="Path_863" data-name="Path 863" class="cls-1" d="M992.587,402.307s-7.5-.836-6.884,4.485a1.286,1.286,0,0,0,.594,1.387s.034-.4.792-.22a3.427,3.427,0,0,0,.816.081,1.69,1.69,0,0,0,1.02-.363h0s2.161-.767,3.16-4.182c0,0,.646-.725.632-.919l-1.3.477a2.215,2.215,0,0,1,0,1.684s.042-1.648-.2-1.621c-.05,0-.676.283-.676.283a3.778,3.778,0,0,1,.044,2.774s.313-1.955-.283-2.663l-.921.477a3.944,3.944,0,0,1,.131,3.009s.256-2.056-.325-2.892l-.842.594a3.864,3.864,0,0,1,.18,2.756s.057-2.405-.365-2.607a5.231,5.231,0,0,0-.862.84s.5,1.208.123,1.813c0,0-.133-1.611-.307-1.626a5.328,5.328,0,0,0-.872,1.747,3.857,3.857,0,0,1,.705-1.858,2.114,2.114,0,0,0-1.109.505s.147-.745,1.3-.753c0,0,.626-.775.792-.814a4.641,4.641,0,0,0-1.842.117,2.061,2.061,0,0,1,2.06-.281l.832-.612a6.621,6.621,0,0,0-2.138-.087,2.583,2.583,0,0,1,2.362-.052l.9-.475a7.889,7.889,0,0,0-2.033-.279,3.112,3.112,0,0,1,2.294.153l.638-.25s-.929-.232-1.2-.273-.283-.119-.283-.119a3.247,3.247,0,0,1,1.751.283A7.763,7.763,0,0,0,992.587,402.307Z" transform="translate(-809.266 -333.467)"/>
    <path id="Path_864" data-name="Path 864" class="cls-1" d="M1050.5,437.688s-7.5-.834-6.884,4.485a1.289,1.289,0,0,0,.594,1.387s.034-.4.792-.218a3.494,3.494,0,0,0,.814.079,1.712,1.712,0,0,0,1.016-.361h0s2.159-.767,3.158-4.184c0,0,.648-.723.632-.919l-1.3.477a2.215,2.215,0,0,1,0,1.684s.042-1.646-.2-1.621c-.049,0-.676.283-.676.283a3.778,3.778,0,0,1,.044,2.773s.313-1.955-.283-2.661l-.921.475a3.944,3.944,0,0,1,.131,3.009s.256-2.056-.325-2.89l-.842.594a3.876,3.876,0,0,1,.182,2.758s.055-2.407-.367-2.609a5.232,5.232,0,0,0-.862.84s.5,1.208.123,1.813c0,0-.133-1.611-.307-1.626a5.3,5.3,0,0,0-.87,1.747,3.868,3.868,0,0,1,.7-1.858,2.131,2.131,0,0,0-1.109.505s.149-.745,1.3-.751c0,0,.624-.775.792-.816a4.658,4.658,0,0,0-1.842.119,2.058,2.058,0,0,1,2.06-.283l.832-.612a6.619,6.619,0,0,0-2.138-.087,2.58,2.58,0,0,1,2.362-.05l.9-.477a7.888,7.888,0,0,0-2.033-.279,3.111,3.111,0,0,1,2.294.153l.638-.248s-.929-.232-1.2-.275-.285-.119-.285-.119a3.259,3.259,0,0,1,1.751.285A7.837,7.837,0,0,0,1050.5,437.688Z" transform="translate(-855.703 -361.839)"/>
    <path id="Path_865" data-name="Path 865" class="cls-1" d="M915.272,132.167s-6.046-4.523-8.208.376a1.289,1.289,0,0,0-.186,1.5s.226-.319.792.21a3.472,3.472,0,0,0,.662.483,1.7,1.7,0,0,0,1.064.2h0s2.25.434,4.844-2c0,0,.923-.3,1.01-.471l-1.361-.246a2.289,2.289,0,0,1-.846,1.454s.87-1.4.644-1.5c-.046-.022-.725-.1-.725-.1a3.765,3.765,0,0,1-1.365,2.407s1.262-1.527,1.105-2.439l-1.036-.055a3.952,3.952,0,0,1-1.412,2.661s1.264-1.642,1.189-2.657l-1.026.083a3.808,3.808,0,0,1-1.24,2.466s1.268-2.044,1.006-2.433a4.979,4.979,0,0,0-1.169.287s-.178,1.3-.812,1.624c0,0,.7-1.456.559-1.557a5.325,5.325,0,0,0-1.636,1.064,3.87,3.87,0,0,1,1.549-1.244,2.134,2.134,0,0,0-1.212-.127s.505-.567,1.5.01a4.98,4.98,0,0,1,1.088-.307,4.636,4.636,0,0,0-1.648-.83,2.063,2.063,0,0,1,1.92.792l1.028-.1a6.75,6.75,0,0,0-1.8-1.157s.957-.121,2.06,1.151l1.016.046a7.942,7.942,0,0,0-1.611-1.272,3.127,3.127,0,0,1,1.9,1.294l.676.109s-.684-.67-.9-.844-.182-.232-.182-.232a3.257,3.257,0,0,1,1.363,1.133A7.955,7.955,0,0,0,915.272,132.167Z" transform="translate(-745.949 -115.356)"/>
    <path id="Path_866" data-name="Path 866" class="cls-1" d="M941.837,283.577s-2.084-7.257-6.771-4.652a1.287,1.287,0,0,0-1.056,1.084s.372-.117.5.642a3.516,3.516,0,0,0,.238.792,1.7,1.7,0,0,0,.725.808h0s1.533,1.7,5.072,1.323c0,0,.915.321,1.09.234l-.937-1.018a2.278,2.278,0,0,1-1.551.65s1.537-.594,1.418-.806c-.024-.044-.519-.517-.519-.517a3.753,3.753,0,0,1-2.54,1.1s1.928-.456,2.352-1.276l-.792-.67a3.958,3.958,0,0,1-2.732,1.268s2-.549,2.548-1.4l-.868-.553a3.86,3.86,0,0,1-2.478,1.218s2.245-.866,2.272-1.331a4.947,4.947,0,0,0-1.107-.475s-.925.923-1.628.8c0,0,1.438-.739,1.387-.905a5.351,5.351,0,0,0-1.947-.139,3.865,3.865,0,0,1,1.981-.057,2.126,2.126,0,0,0-.892-.832s.745-.149,1.189.911a4.944,4.944,0,0,1,1.052.412,4.634,4.634,0,0,0-.812-1.656,2.058,2.058,0,0,1,1.048,1.795l.884.537a6.59,6.59,0,0,0-.737-2.009,2.6,2.6,0,0,1,.949,2.161l.792.648a7.857,7.857,0,0,0-.517-1.981,3.13,3.13,0,0,1,.735,2.179l.472.5s-.139-.947-.2-1.216,0-.307,0-.307a3.246,3.246,0,0,1,.406,1.728A7.865,7.865,0,0,0,941.837,283.577Z" transform="translate(-767.843 -234.114)"/>
    <path id="Path_867" data-name="Path 867" class="cls-1" d="M704.563,371.943s-4.047-6.375-7.805-2.56a1.281,1.281,0,0,0-.709,1.337s.327-.218.664.475a3.389,3.389,0,0,0,.448.685,1.692,1.692,0,0,0,.921.571h0s1.951,1.2,5.24-.158a3.382,3.382,0,0,0,1.111-.081l-1.189-.713a2.277,2.277,0,0,1-1.307,1.06s1.311-.991,1.135-1.173c-.034-.036-.644-.349-.644-.349a3.764,3.764,0,0,1-2.13,1.765s1.722-.981,1.9-1.888l-.949-.418a3.946,3.946,0,0,1-2.264,1.981s1.763-1.088,2.05-2.062l-.991-.285s-.836,1.619-2.035,1.866c0,0,1.91-1.462,1.8-1.918a4.923,4.923,0,0,0-1.189-.145s-.628,1.147-1.337,1.23c0,0,1.173-1.113,1.076-1.26a5.337,5.337,0,0,0-1.908.416,3.856,3.856,0,0,1,1.89-.614,2.126,2.126,0,0,0-1.088-.549s.672-.351,1.387.541a4.9,4.9,0,0,1,1.127.1,4.56,4.56,0,0,0-1.246-1.361s.931.079,1.51,1.428l1,.265a6.623,6.623,0,0,0-1.272-1.72s.937.226,1.518,1.809l.935.4a7.9,7.9,0,0,0-1.056-1.759,3.121,3.121,0,0,1,1.317,1.884l.594.343s-.4-.87-.537-1.109-.085-.3-.085-.3a3.25,3.25,0,0,1,.874,1.543A8.056,8.056,0,0,0,704.563,371.943Z" transform="translate(-577.01 -306.129)"/>
    <path id="Path_868" data-name="Path 868" class="cls-10" d="M839.017,206.875s-3.849-6.5-7.726-2.8a1.288,1.288,0,0,0-.749,1.315s.331-.21.648.493a3.424,3.424,0,0,0,.426.7,1.682,1.682,0,0,0,.9.594h0s1.912,1.264,5.242,0c0,0,.967.081,1.113-.048l-1.163-.749a2.278,2.278,0,0,1-1.339,1.018s1.341-.957,1.173-1.137c-.036-.038-.634-.37-.634-.37a3.766,3.766,0,0,1-2.179,1.7s1.751-.927,1.955-1.827l-.935-.44a3.951,3.951,0,0,1-2.326,1.914s1.8-1.032,2.114-2l-.979-.317s-.888,1.585-2.092,1.8c0,0,1.953-1.4,1.862-1.86a4.892,4.892,0,0,0-1.189-.182s-.664,1.127-1.375,1.189c0,0,1.206-1.074,1.115-1.224a5.333,5.333,0,0,0-1.92.357,3.867,3.867,0,0,1,1.908-.555,2.13,2.13,0,0,0-1.072-.582s.683-.331,1.387.582a5.017,5.017,0,0,1,1.123.135,4.738,4.738,0,0,0-1.2-1.4s.927.107,1.464,1.474l.99.3a6.586,6.586,0,0,0-1.218-1.759s.931.256,1.462,1.854l.921.43a7.962,7.962,0,0,0-.991-1.783,3.134,3.134,0,0,1,1.26,1.924l.581.361s-.372-.882-.5-1.125-.075-.3-.075-.3a3.254,3.254,0,0,1,.826,1.569A7.672,7.672,0,0,0,839.017,206.875Z" transform="translate(-684.864 -173.633)"/>
    <path id="Path_869" data-name="Path 869" class="cls-10" d="M724.611,265.1s.2-7.548-5.046-6.484a1.291,1.291,0,0,0-1.335.715s.4,0,.285.763a3.485,3.485,0,0,0-.012.82,1.694,1.694,0,0,0,.446.991h0s.945,2.088,4.434,2.8c0,0,.775.584.969.553L723.757,264a2.286,2.286,0,0,1-1.676.149s1.644-.1,1.6-.339c0-.05-.341-.652-.341-.652a3.75,3.75,0,0,1-2.752.275s1.981.149,2.629-.5l-.553-.878a3.957,3.957,0,0,1-2.987.38s2.07.083,2.855-.565l-.66-.792a3.863,3.863,0,0,1-2.732.412s2.4-.145,2.575-.582a5.14,5.14,0,0,0-.911-.792s-1.161.594-1.795.273c0,0,1.585-.265,1.595-.442a5.317,5.317,0,0,0-1.815-.721,3.858,3.858,0,0,1,1.912.547,2.131,2.131,0,0,0-.594-1.064s.755.085.858,1.228a4.926,4.926,0,0,1,.88.713,4.633,4.633,0,0,0-.273-1.825,2.056,2.056,0,0,1,.456,2.027l.68.781a6.634,6.634,0,0,0-.093-2.138,2.6,2.6,0,0,1,.25,2.348l.549.854a7.9,7.9,0,0,0,.109-2.048,3.144,3.144,0,0,1,.04,2.3l.3.614s.153-.945.172-1.22.1-.293.1-.293a3.252,3.252,0,0,1-.137,1.769A7.549,7.549,0,0,0,724.611,265.1Z" transform="translate(-594.811 -218.197)"/>
    <ellipse id="Ellipse_1113" data-name="Ellipse 1113" class="cls-1" cx="5.335" cy="0.901" rx="5.335" ry="0.901" transform="translate(133.134 141.007)"/>
    <ellipse id="Ellipse_1114" data-name="Ellipse 1114" class="cls-1" cx="5.335" cy="0.901" rx="5.335" ry="0.901" transform="translate(113.686 154.692)"/>
    <ellipse id="Ellipse_1115" data-name="Ellipse 1115" class="cls-1" cx="5.335" cy="0.901" rx="5.335" ry="0.901" transform="translate(13.114 147.681)"/>
    <ellipse id="Ellipse_1116" data-name="Ellipse 1116" class="cls-1" cx="5.335" cy="0.901" rx="5.335" ry="0.901" transform="translate(154.152 153.791)"/>
    <ellipse id="Ellipse_1117" data-name="Ellipse 1117" class="cls-10" cx="7.966" cy="1.347" rx="7.966" ry="1.347" transform="translate(157.076 141.908)"/>
    <path id="Path_870" data-name="Path 870" class="cls-10" d="M915.173,752.149a2.3,2.3,0,0,0,.759-1.145,1.018,1.018,0,0,0-.529-1.167,1.5,1.5,0,0,0-1.4.491,1.882,1.882,0,0,1-1.363.66,2.08,2.08,0,0,0,.642-1.943.814.814,0,0,0-.178-.4c-.271-.289-.761-.164-1.086.063a4.043,4.043,0,0,0-1.323,3.384,6.354,6.354,0,0,1-.018-1.387,1.423,1.423,0,0,0-.525-1.232,1.567,1.567,0,0,0-.792-.2,1.655,1.655,0,0,0-1.3.368,1.277,1.277,0,0,0,.049,1.585,5.122,5.122,0,0,0,1.341,1.074,3,3,0,0,1,.959.913.929.929,0,0,1,.069.162h2.9A8.013,8.013,0,0,0,915.173,752.149Z" transform="translate(-746.829 -611.098)"/>
    <path id="Path_871" data-name="Path 871" class="cls-13" d="M170.29,777.215s3.041-.093,3.962-.747,4.681-1.432,4.909-.384,4.572,5.208,1.137,5.236-7.982-.535-8.9-1.094S170.29,777.215,170.29,777.215Z" transform="translate(-155.423 -632.823)"/>
    <path id="Path_872" data-name="Path 872" class="cls-14" d="M180.356,787.594c-3.435.028-7.982-.535-8.9-1.093-.7-.424-.975-1.948-1.068-2.651h-.1s.2,2.455,1.107,3.011,5.462,1.121,8.9,1.094c.991,0,1.333-.361,1.315-.884C181.471,787.39,181.093,787.588,180.356,787.594Z" transform="translate(-155.423 -639.461)"/>
  </g>
</svg>
